…
    ## See spec(...) for full column specifications.

Exploratory analysis
--------------------

``` r
# number of genres for each show 
tidy_anime %>%
  dplyr::select(animeID, genre) %>%
  group_by(animeID) %>%
  count
```

    ## # A tibble: 13,631 x 2
    ## # Groups:   animeID [13,631]
    ##    animeID     n
    ##      <dbl> <int>
    ##  1       1     6
    ##  2       5    10
    ##  3       6     6
    ##  4       7     6
    ##  5       8     8
    ##  6      16    15
    ##  7      17     4
    ##  8      18    10
    ##  9      19    21
    ## 10      20    18
    ## # … with 13,621 more rows

``` r
# number of shows for each category 
tidy_anime %>%
  dplyr::select(animeID, genre) %>%
  group_by(genre) %>%
  count %>%
  arrange(desc(n))
```

    ## # A tibble: 41 x 2
    ## # Groups:   genre [41]
    ##    genre             n
    ##    <chr>         <int>
    ##  1 Comedy         9478
    ##  2 Action         6725
    ##  3 Fantasy        4896
    ##  4 Drama          4488
    ##  5 Adventure      4414
    ##  6 Sci-Fi         4402
    ##  7 Romance        3623
    ##  8 Shounen        3498
    ##  9 School         3351
    ## 10 Slice of Life  3179
    ## # … with 31 more rows
…
